1	Might Stage 1 (P. Atk. + 2%)
2	Might Stage 2 (P. Atk. + 3%)
3	Might Stage 3 (P. Atk. + 4%, PvP Damage + 5%)
4	Might Stage 4 (P. Atk. + 5%, PvP Damage + 5%)
5	Might Stage 5 (P. Atk. + 6%, PvP Damage + 5%)
6	Might Stage 6 (P. Atk. + 7%, PvP Damage + 5%)
7	Might Stage 7 (P. Atk. + 8%, PvP Damage + 5%)
8	Might Stage 8 (P. Atk. + 9%, PvP Damage + 5%)
9	Might Stage 9 (P. Atk. + 10%, PvP Damage + 5%)
10	Might Stage 10 (P. Atk. + 11%, PvP Damage + 5%)
11	Might Stage 11 (P. Atk. + 12%, PvP Damage + 5%)
12	Might Stage 12 (P. Atk. + 13%, PvP Damage + 5%)
13	Might Stage 13 (P. Atk. + 14%, PvP Damage + 5%)
14	Might Stage 14 (P. Atk. + 15%, PvP Damage + 5%)
15	Might Stage 15 (P. Atk. + 16%, PvP Damage + 5%)
16	Fury Stage 1 (Atk. Spd. + 11%)
17	Fury Stage 2 (Atk. Spd. + 12%)
18	Fury Stage 3 (Atk. Spd. + 13%, PvP Damage + 5%)
19	Fury Stage 4 (Atk. Spd. + 14%, PvP Damage + 5%)
20	Fury Stage 5 (Atk. Spd. + 15%, PvP Damage + 5%)
21	Fury Stage 6 (Atk. Spd. + 16%, PvP Damage + 5%)
22	Fury Stage 7 (Atk. Spd. + 17%, PvP Damage + 5%)
23	Fury Stage 8 (Atk. Spd. + 18%, PvP Damage + 5%)
24	Fury Stage 9 (Atk. Spd. + 19%, PvP Damage + 5%)
25	Fury Stage 10 (Atk. Spd. + 20%, PvP Damage + 5%)
26	Fury Stage 11 (Atk. Spd. + 21%, PvP Damage + 5%)
27	Fury Stage 12 (Atk. Spd. + 22%, PvP Damage + 5%)
28	Fury Stage 13 (Atk. Spd. + 23%, PvP Damage + 5%)
29	Fury Stage 14 (Atk. Spd. + 24%, PvP Damage + 5%)
30	Fury Stage 15 (Atk. Spd. + 25%, PvP Damage + 5%)
31	Focus Stage 1 (P. Critical Rate + 58)
32	Focus Stage 2 (P. Critical Rate + 64)
33	Focus Stage 3 (P. Critical Rate + 70, PvP Damage + 5%)
34	Focus Stage 4 (P. Critical Rate + 76, PvP Damage + 5%)
35	Focus Stage 5 (P. Critical Rate + 82, PvP Damage + 5%)
36	Focus Stage 6 (P. Critical Rate + 88, PvP Damage + 5%)
37	Focus Stage 7 (P. Critical Rate + 94, PvP Damage + 5%)
38	Focus Stage 8 (P. Critical Rate + 100, PvP Damage + 5%)
39	Focus Stage 9 (P. Critical Rate + 106, PvP Damage + 5%)
40	Focus Stage 10 (P. Critical Rate + 112, PvP Damage + 5%)
41	Focus Stage 11 (P. Critical Rate + 118, PvP Damage + 5%)
42	Focus Stage 12 (P. Critical Rate + 124, PvP Damage + 5%)
43	Focus Stage 13 (P. Critical Rate + 130, PvP Damage + 5%)
44	Focus Stage 14 (P. Critical Rate + 136, PvP Damage + 5%)
45	Focus Stage 15 (P. Critical Rate + 142, PvP Damage + 5%)
46	Death Stage 1 (P. Critical Damage + 3%)
47	Death Stage 2 (P. Critical Damage + 4%)
48	Death Stage 3 (P. Critical Damage + 5%, PvP Damage + 5%)
49	Death Stage 4 (P. Critical Damage + 6%, PvP Damage + 5%)
50	Death Stage 5 (P. Critical Damage + 7%, PvP Damage + 5%)
51	Death Stage 6 (P. Critical Damage + 8%, PvP Damage + 5%)
52	Death Stage 7 (P. Critical Damage + 9%, PvP Damage + 5%)
53	Death Stage 8 (P. Critical Damage + 10%, PvP Damage + 5%)
54	Death Stage 9 (P. Critical Damage + 11%, PvP Damage + 5%)
55	Death Stage 10 (P. Critical Damage + 12%, PvP Damage + 5%)
56	Death Stage 11 (P. Critical Damage + 13%, PvP Damage + 5%)
57	Death Stage 12 (P. Critical Damage + 14%, PvP Damage + 5%)
58	Death Stage 13 (P. Critical Damage + 15%, PvP Damage + 5%)
59	Death Stage 14 (P. Critical Damage + 16%, PvP Damage + 5%)
60	Death Stage 15 (P. Critical Damage + 17%, PvP Damage + 5%)
61	Hunter Stage 1 (P. Skill Critical Rate + 6%)
62	Hunter Stage 2 (P. Skill Critical Rate + 7%)
63	Hunter Stage 3 (P. Skill Critical Rate + 8%, PvP Damage + 5%)
64	Hunter Stage 4 (P. Skill Critical Rate + 9%, PvP Damage + 5%)
65	Hunter Stage 5 (P. Skill Critical Rate + 10%, PvP Damage + 5%)
66	Hunter Stage 6 (P. Skill Critical Rate + 11%, PvP Damage + 5%)
67	Hunter Stage 7 (P. Skill Critical Rate + 12%, PvP Damage + 5%)
68	Hunter Stage 8 (P. Skill Critical Rate + 13%, PvP Damage + 5%)
69	Hunter Stage 9 (P. Skill Critical Rate + 14%, PvP Damage + 5%)
70	Hunter Stage 10 (P. Skill Critical Rate + 15%, PvP Damage + 5%)
71	Hunter Stage 11 (P. Skill Critical Rate + 16%, PvP Damage + 5%)
72	Hunter Stage 12 (P. Skill Critical Rate + 17%, PvP Damage + 5%)
73	Hunter Stage 13 (P. Skill Critical Rate + 18%, PvP Damage + 5%)
74	Hunter Stage 14 (P. Skill Critical Rate + 19%, PvP Damage + 5%)
75	Hunter Stage 15 (P. Skill Critical Rate + 20%, PvP Damage + 5%)
76	Fire Stage 1 (P. Skill Critical Damage + 6%)
77	Fire Stage 2 (P. Skill Critical Damage + 7%)
78	Fire Stage 3 (P. Skill Critical Damage + 8%, PvP Damage + 5%)
79	Fire Stage 4 (P. Skill Critical Damage + 9%, PvP Damage + 5%)
80	Fire Stage 5 (P. Skill Critical Damage + 10%, PvP Damage + 5%)
81	Fire Stage 6 (P. Skill Critical Damage + 11%, PvP Damage + 5%)
82	Fire Stage 7 (P. Skill Critical Damage + 12%, PvP Damage + 5%)
83	Fire Stage 8 (P. Skill Critical Damage + 13%, PvP Damage + 5%)
84	Fire Stage 9 (P. Skill Critical Damage + 14%, PvP Damage + 5%)
85	Fire Stage 10 (P. Skill Critical Damage + 15%, PvP Damage + 5%)
86	Fire Stage 11 (P. Skill Critical Damage + 16%, PvP Damage + 5%)
87	Fire Stage 12 (P. Skill Critical Damage + 17%, PvP Damage + 5%)
88	Fire Stage 13 (P. Skill Critical Damage + 18%, PvP Damage + 5%)
89	Fire Stage 14 (P. Skill Critical Damage + 19%, PvP Damage + 5%)
90	Fire Stage 15 (P. Skill Critical Damage + 20%, PvP Damage + 5%)
91	Body Stage 1 (Max HP + 21%)
92	Body Stage 2 (Max HP + 22%)
93	Body Stage 3 (Max HP + 23%, PvP Damage + 5%)
94	Body Stage 4 (Max HP + 24%, PvP Damage + 5%)
95	Body Stage 5 (Max HP + 25%, PvP Damage + 5%)
96	Body Stage 6 (Max HP + 26%, PvP Damage + 5%)
97	Body Stage 7 (Max HP + 27%, PvP Damage + 5%)
98	Body Stage 8 (Max HP + 28%, PvP Damage + 5%)
99	Body Stage 9 (Max HP + 29%, PvP Damage + 5%)
100	Body Stage 10 (Max HP + 30%, PvP Damage + 5%)
101	Body Stage 11 (Max HP + 31%, PvP Damage + 5%)
102	Body Stage 12 (Max HP + 32%, PvP Damage + 5%)
103	Body Stage 13 (Max HP + 33%, PvP Damage + 5%)
104	Body Stage 14 (Max HP + 34%, PvP Damage + 5%)
105	Body Stage 15 (Max HP + 35%, PvP Damage + 5%)
106	Empower Stage 1 (M. Atk. + 2%)
107	Empower Stage 2 (M. Atk. + 3%)
108	Empower Stage 3 (M. Atk. + 4%, PvP Damage + 5%)
109	Empower Stage 4 (M. Atk. + 5%, PvP Damage + 5%)
110	Empower Stage 5 (M. Atk. + 6%, PvP Damage + 5%)
111	Empower Stage 6 (M. Atk. + 7%, PvP Damage + 5%)
112	Empower Stage 7 (M. Atk. + 8%, PvP Damage + 5%)
113	Empower Stage 8 (M. Atk. + 9%, PvP Damage + 5%)
114	Empower Stage 9 (M. Atk. + 10%, PvP Damage + 5%)
115	Empower Stage 10 (M. Atk. + 11%, PvP Damage + 5%)
116	Empower Stage 11 (M. Atk. + 12%, PvP Damage + 5%)
117	Empower Stage 12 (M. Atk. + 13%, PvP Damage + 5%)
118	Empower Stage 13 (M. Atk. + 14%, PvP Damage + 5%)
119	Empower Stage 14 (M. Atk. + 15%, PvP Damage + 5%)
120	Empower Stage 15 (M. Atk. + 16%, PvP Damage + 5%)
121	Acumen Stage 1 (Casting Spd. + 11%)
122	Acumen Stage 2 (Casting Spd. + 12%)
123	Acumen Stage 3 (Casting Spd. + 13%, PvP Damage + 5%)
124	Acumen Stage 4 (Casting Spd. + 14%, PvP Damage + 5%)
125	Acumen Stage 5 (Casting Spd. + 15%, PvP Damage + 5%)
126	Acumen Stage 6 (Casting Spd. + 16%, PvP Damage + 5%)
127	Acumen Stage 7 (Casting Spd. + 17%, PvP Damage + 5%)
128	Acumen Stage 8 (Casting Spd. + 18%, PvP Damage + 5%)
129	Acumen Stage 9 (Casting Spd. + 19%, PvP Damage + 5%)
130	Acumen Stage 10 (Casting Spd. + 20%, PvP Damage + 5%)
131	Acumen Stage 11 (Casting Spd. + 21%, PvP Damage + 5%)
132	Acumen Stage 12 (Casting Spd. + 22%, PvP Damage + 5%)
133	Acumen Stage 13 (Casting Spd. + 23%, PvP Damage + 5%)
134	Acumen Stage 14 (Casting Spd. + 24%, PvP Damage + 5%)
135	Acumen Stage 15 (Casting Spd. + 25%, PvP Damage + 5%)
136	Wild Stage 1 (M. Critical Rate + 21%)
137	Wild Stage 2 (M. Critical Rate + 22%)
138	Wild Stage 3 (M. Critical Rate + 23%, PvP Damage + 5%)
139	Wild Stage 4 (M. Critical Rate + 24%, PvP Damage + 5%)
140	Wild Stage 5 (M. Critical Rate + 25%, PvP Damage + 5%)
141	Wild Stage 6 (M. Critical Rate + 26%, PvP Damage + 5%)
142	Wild Stage 7 (M. Critical Rate + 27%, PvP Damage + 5%)
143	Wild Stage 8 (M. Critical Rate + 28%, PvP Damage + 5%)
144	Wild Stage 9 (M. Critical Rate + 29%, PvP Damage + 5%)
145	Wild Stage 10 (M. Critical Rate + 30%, PvP Damage + 5%)
146	Wild Stage 11 (M. Critical Rate + 31%, PvP Damage + 5%)
147	Wild Stage 12 (M. Critical Rate + 32%, PvP Damage + 5%)
148	Wild Stage 13 (M. Critical Rate + 33%, PvP Damage + 5%)
149	Wild Stage 14 (M. Critical Rate + 34%, PvP Damage + 5%)
150	Wild Stage 15 (M. Critical Rate + 35%, PvP Damage + 5%)
151	Mystic Stage 1 (M. Critical Damage + 3%)
152	Mystic Stage 2 (M. Critical Damage + 4%)
153	Mystic Stage 3 (M. Critical Damage + 5%, PvP Damage + 5%)
154	Mystic Stage 4 (M. Critical Damage + 6%, PvP Damage + 5%)
155	Mystic Stage 5 (M. Critical Damage + 7%, PvP Damage + 5%)
156	Mystic Stage 6 (M. Critical Damage + 8%, PvP Damage + 5%)
157	Mystic Stage 7 (M. Critical Damage + 9%, PvP Damage + 5%)
158	Mystic Stage 8 (M. Critical Damage + 10%, PvP Damage + 5%)
159	Mystic Stage 9 (M. Critical Damage + 11%, PvP Damage + 5%)
160	Mystic Stage 10 (M. Critical Damage + 12%, PvP Damage + 5%)
161	Mystic Stage 11 (M. Critical Damage + 13%, PvP Damage + 5%)
162	Mystic Stage 12 (M. Critical Damage + 14%, PvP Damage + 5%)
163	Mystic Stage 13 (M. Critical Damage + 15%, PvP Damage + 5%)
164	Mystic Stage 14 (M. Critical Damage + 16%, PvP Damage + 5%)
165	Mystic Stage 15 (M. Critical Damage + 17%, PvP Damage + 5%)
166	Soul Stage 1 (Max MP + 26%)
167	Soul Stage 2 (Max MP + 27%)
168	Soul Stage 3 (Max MP + 28%, PvP Damage + 5%)
169	Soul Stage 4 (Max MP + 29%, PvP Damage + 5%)
170	Soul Stage 5 (Max MP + 30%, PvP Damage + 5%)
171	Soul Stage 6 (Max MP + 31%, PvP Damage + 5%)
172	Soul Stage 7 (Max MP + 32%, PvP Damage + 5%)
173	Soul Stage 8 (Max MP + 33%, PvP Damage + 5%)
174	Soul Stage 9 (Max MP + 34%, PvP Damage + 5%)
175	Soul Stage 10 (Max MP + 35%, PvP Damage + 5%)
176	Soul Stage 11 (Max MP + 36%, PvP Damage + 5%)
177	Soul Stage 12 (Max MP + 37%, PvP Damage + 5%)
178	Soul Stage 13 (Max MP + 38%, PvP Damage + 5%)
179	Soul Stage 14 (Max MP + 39%, PvP Damage + 5%)
180	Soul Stage 15 (Max MP + 40%, PvP Damage + 5%)
181	Speed Focus Stage 1 (Atk. Spd. + 5%, P. Critical Rate + 26)
182	Speed Focus Stage 2 (Atk. Spd. + 5%, P. Critical Rate + 29)
183	Speed Focus Stage 3 (Atk. Spd. + 6%, P. Critical Rate + 32, PvP Damage + 5%)
184	Speed Focus Stage 4 (Atk. Spd. + 6%, P. Critical Rate + 34, PvP Damage + 5%)
185	Speed Focus Stage 5 (Atk. Spd. + 7%, P. Critical Rate + 37, PvP Damage + 5%)
186	Speed Focus Stage 6 (Atk. Spd. + 7%, P. Critical Rate + 40, PvP Damage + 5%)
187	Speed Focus Stage 7 (Atk. Spd. + 8%, P. Critical Rate + 42, PvP Damage + 5%)
188	Speed Focus Stage 8 (Atk. Spd. + 8%, P. Critical Rate + 45, PvP Damage + 5%)
189	Speed Focus Stage 9 (Atk. Spd. + 9%, P. Critical Rate + 48, PvP Damage + 5%)
190	Speed Focus Stage 10 (Atk. Spd. + 9%, P. Critical Rate + 50, PvP Damage + 5%)
191	Speed Focus Stage 11 (Atk. Spd. + 10%, P. Critical Rate + 53, PvP Damage + 5%)
192	Speed Focus Stage 12 (Atk. Spd. + 10%, P. Critical Rate + 56, PvP Damage + 5%)
193	Speed Focus Stage 13 (Atk. Spd. + 11%, P. Critical Rate + 59, PvP Damage + 5%)
194	Speed Focus Stage 14 (Atk. Spd. + 11%, P. Critical Rate + 61, PvP Damage + 5%)
195	Speed Focus Stage 15 (Atk. Spd. + 12%, P. Critical Rate + 64, PvP Damage + 5%)
196	Speed Death Stage 1 (Atk. Spd. + 5%, P. Critical Damage + 1%)
197	Speed Death Stage 2 (Atk. Spd. + 5%, P. Critical Damage + 2%)
198	Speed Death Stage 3 (Atk. Spd. + 6%, P. Critical Damage + 2%, PvP Damage + 5%)
199	Speed Death Stage 4 (Atk. Spd. + 6%, P. Critical Damage + 3%, PvP Damage + 5%)
200	Speed Death Stage 5 (Atk. Spd. + 7%, P. Critical Damage + 3%, PvP Damage + 5%)
201	Speed Death Stage 6 (Atk. Spd. + 7%, P. Critical Damage + 4%, PvP Damage + 5%)
202	Speed Death Stage 7 (Atk. Spd. + 8%, P. Critical Damage + 4%, PvP Damage + 5%)
203	Speed Death Stage 8 (Atk. Spd. + 8%, P. Critical Damage + 5%, PvP Damage + 5%)
204	Speed Death Stage 9 (Atk. Spd. + 9%, P. Critical Damage + 5%, PvP Damage + 5%)
205	Speed Death Stage 10 (Atk. Spd. + 9%, P. Critical Damage + 6%, PvP Damage + 5%)
206	Speed Death Stage 11 (Atk. Spd. + 10%, P. Critical Damage + 6%, PvP Damage + 5%)
207	Speed Death Stage 12 (Atk. Spd. + 10%, P. Critical Damage + 7%, PvP Damage + 5%)
208	Speed Death Stage 13 (Atk. Spd. + 11%, P. Critical Damage + 7%, PvP Damage + 5%)
209	Speed Death Stage 14 (Atk. Spd. + 11%, P. Critical Damage + 8%, PvP Damage + 5%)
210	Speed Death Stage 15 (Atk. Spd. + 12%, P. Critical Damage + 8%, PvP Damage + 5%)
211	Speed Hunter Stage 1 (Atk. Spd. + 5%, P. Skill Critical Rate + 3%)
212	Speed Hunter Stage 2 (Atk. Spd. + 5%, P. Skill Critical Rate + 4%)
213	Speed Hunter Stage 3 (Atk. Spd. + 6%, P. Skill Critical Rate + 4%, PvP Damage + 5%)
214	Speed Hunter Stage 4 (Atk. Spd. + 6%, P. Skill Critical Rate + 5%, PvP Damage + 5%)
215	Speed Hunter Stage 5 (Atk. Spd. + 7%, P. Skill Critical Rate + 5%, PvP Damage + 5%)
216	Speed Hunter Stage 6 (Atk. Spd. + 7%, P. Skill Critical Rate + 6%, PvP Damage + 5%)
217	Speed Hunter Stage 7 (Atk. Spd. + 8%, P. Skill Critical Rate + 6%, PvP Damage + 5%)
218	Speed Hunter Stage 8 (Atk. Spd. + 8%, P. Skill Critical Rate + 7%, PvP Damage + 5%)
219	Speed Hunter Stage 9 (Atk. Spd. + 9%, P. Skill Critical Rate + 7%, PvP Damage + 5%)
220	Speed Hunter Stage 10 (Atk. Spd. + 9%, P. Skill Critical Rate + 8%, PvP Damage + 5%)
221	Speed Hunter Stage 11 (Atk. Spd. + 10%, P. Skill Critical Rate + 8%, PvP Damage + 5%)
222	Speed Hunter Stage 12 (Atk. Spd. + 10%, P. Skill Critical Rate + 9%, PvP Damage + 5%)
223	Speed Hunter Stage 13 (Atk. Spd. + 11%, P. Skill Critical Rate + 9%, PvP Damage + 5%)
224	Speed Hunter Stage 14 (Atk. Spd. + 11%, P. Skill Critical Rate + 10%, PvP Damage + 5%)
225	Speed Hunter Stage 15 (Atk. Spd. + 12%, P. Skill Critical Rate + 10%, PvP Damage + 5%)
226	Speed Fire Stage 1 (Atk. Spd. + 5%, P. Skill Critical Damage + 3%)
227	Speed Fire Stage 2 (Atk. Spd. + 5%, P. Skill Critical Damage + 4%)
228	Speed Fire Stage 3 (Atk. Spd. + 6%, P. Skill Critical Damage + 4%, PvP Damage + 5%)
229	Speed Fire Stage 4 (Atk. Spd. + 6%, P. Skill Critical Damage + 5%, PvP Damage + 5%)
230	Speed Fire Stage 5 (Atk. Spd. + 7%, P. Skill Critical Damage + 5%, PvP Damage + 5%)
231	Speed Fire Stage 6 (Atk. Spd. + 7%, P. Skill Critical Damage + 6%, PvP Damage + 5%)
232	Speed Fire Stage 7 (Atk. Spd. + 8%, P. Skill Critical Damage + 6%, PvP Damage + 5%)
233	Speed Fire Stage 8 (Atk. Spd. + 8%, P. Skill Critical Damage + 7%, PvP Damage + 5%)
234	Speed Fire Stage 9 (Atk. Spd. + 9%, P. Skill Critical Damage + 7%, PvP Damage + 5%)
235	Speed Fire Stage 10 (Atk. Spd. + 9%, P. Skill Critical Damage + 8%, PvP Damage + 5%)
236	Speed Fire Stage 11 (Atk. Spd. + 10%, P. Skill Critical Damage + 8%, PvP Damage + 5%)
237	Speed Fire Stage 12 (Atk. Spd. + 10%, P. Skill Critical Damage + 9%, PvP Damage + 5%)
238	Speed Fire Stage 13 (Atk. Spd. + 11%, P. Skill Critical Damage + 9%, PvP Damage + 5%)
239	Speed Fire Stage 14 (Atk. Spd. + 11%, P. Skill Critical Damage + 10%, PvP Damage + 5%)
240	Speed Fire Stage 15 (Atk. Spd. + 12%, P. Skill Critical Damage + 10%, PvP Damage + 5%)
241	Speed Body Stage 1 (Atk. Spd. + 5%, Max HP + 10%)
242	Speed Body Stage 2 (Atk. Spd. + 5%, Max HP + 11%)
243	Speed Body Stage 3 (Atk. Spd. + 6%, Max HP + 11%, PvP Damage + 5%)
244	Speed Body Stage 4 (Atk. Spd. + 6%, Max HP + 12%, PvP Damage + 5%)
245	Speed Body Stage 5 (Atk. Spd. + 7%, Max HP + 12%, PvP Damage + 5%)
246	Speed Body Stage 6 (Atk. Spd. + 7%, Max HP + 13%, PvP Damage + 5%)
247	Speed Body Stage 7 (Atk. Spd. + 8%, Max HP + 13%, PvP Damage + 5%)
248	Speed Body Stage 8 (Atk. Spd. + 8%, Max HP + 14%, PvP Damage + 5%)
249	Speed Body Stage 9 (Atk. Spd. + 9%, Max HP + 14%, PvP Damage + 5%)
250	Speed Body Stage 10 (Atk. Spd. + 9%, Max HP + 15%, PvP Damage + 5%)
251	Speed Body Stage 11 (Atk. Spd. + 10%, Max HP + 15%, PvP Damage + 5%)
252	Speed Body Stage 12 (Atk. Spd. + 10%, Max HP + 16%, PvP Damage + 5%)
253	Speed Body Stage 13 (Atk. Spd. + 11%, Max HP + 16%, PvP Damage + 5%)
254	Speed Body Stage 14 (Atk. Spd. + 11%, Max HP + 17%, PvP Damage + 5%)
255	Speed Body Stage 15 (Atk. Spd. + 12%, Max HP + 17%, PvP Damage + 5%)
256	Critical Death Stage 1 (P. Critical Rate + 26, P. Critical Damage + 1%)
257	Critical Death Stage 2 (P. Critical Rate + 29, P. Critical Damage + 2%)
258	Critical Death Stage 3 (P. Critical Rate + 32, P. Critical Damage + 2%, PvP Damage + 5%)
259	Critical Death Stage 4 (P. Critical Rate + 34, P. Critical Damage + 3%, PvP Damage + 5%)
260	Critical Death Stage 5 (P. Critical Rate + 37, P. Critical Damage + 3%, PvP Damage + 5%)
261	Critical Death Stage 6 (P. Critical Rate + 40, P. Critical Damage + 4%, PvP Damage + 5%)
262	Critical Death Stage 7 (P. Critical Rate + 42, P. Critical Damage + 4%, PvP Damage + 5%)
263	Critical Death Stage 8 (P. Critical Rate + 45, P. Critical Damage + 5%, PvP Damage + 5%)
264	Critical Death Stage 9 (P. Critical Rate + 48, P. Critical Damage + 5%, PvP Damage + 5%)
265	Critical Death Stage 10 (P. Critical Rate + 50, P. Critical Damage + 6%, PvP Damage + 5%)
266	Critical Death Stage 11 (P. Critical Rate + 53, P. Critical Damage + 6%, PvP Damage + 5%)
267	Critical Death Stage 12 (P. Critical Rate + 56, P. Critical Damage + 7%, PvP Damage + 5%)
268	Critical Death Stage 13 (P. Critical Rate + 59, P. Critical Damage + 7%, PvP Damage + 5%)
269	Critical Death Stage 14 (P. Critical Rate + 61, P. Critical Damage + 8%, PvP Damage + 5%)
270	Critical Death Stage 15 (P. Critical Rate + 64, P. Critical Damage + 8%, PvP Damage + 5%)
271	Critical Hunter Stage 1 (P. Critical Rate + 26, P. Skill Critical Rate + 3%)
272	Critical Hunter Stage 2 (P. Critical Rate + 29, P. Skill Critical Rate + 4%)
273	Critical Hunter Stage 3 (P. Critical Rate + 32, P. Skill Critical Rate + 4%, PvP Damage + 5%)
274	Critical Hunter Stage 4 (P. Critical Rate + 34, P. Skill Critical Rate + 5%, PvP Damage + 5%)
275	Critical Hunter Stage 5 (P. Critical Rate + 37, P. Skill Critical Rate + 5%, PvP Damage + 5%)
276	Critical Hunter Stage 6 (P. Critical Rate + 40, P. Skill Critical Rate + 6%, PvP Damage + 5%)
277	Critical Hunter Stage 7 (P. Critical Rate + 42, P. Skill Critical Rate + 6%, PvP Damage + 5%)
278	Critical Hunter Stage 8 (P. Critical Rate + 45, P. Skill Critical Rate + 7%, PvP Damage + 5%)
279	Critical Hunter Stage 9 (P. Critical Rate + 48, P. Skill Critical Rate + 7%, PvP Damage + 5%)
280	Critical Hunter Stage 10 (P. Critical Rate + 50, P. Skill Critical Rate + 8%, PvP Damage + 5%)
281	Critical Hunter Stage 11 (P. Critical Rate + 53, P. Skill Critical Rate + 8%, PvP Damage + 5%)
282	Critical Hunter Stage 12 (P. Critical Rate + 56, P. Skill Critical Rate + 9%, PvP Damage + 5%)
283	Critical Hunter Stage 13 (P. Critical Rate + 59, P. Skill Critical Rate + 9%, PvP Damage + 5%)
284	Critical Hunter Stage 14 (P. Critical Rate + 61, P. Skill Critical Rate + 10%, PvP Damage + 5%)
285	Critical Hunter Stage 15 (P. Critical Rate + 64, P. Skill Critical Rate + 10%, PvP Damage + 5%)
286	Critical Fire Stage 1 (P. Critical Rate + 26, P. Skill Critical Damage + 3%)
287	Critical Fire Stage 2 (P. Critical Rate + 29, P. Skill Critical Damage + 4%)
288	Critical Fire Stage 3 (P. Critical Rate + 32, P. Skill Critical Damage + 4%, PvP Damage + 5%)
289	Critical Fire Stage 4 (P. Critical Rate + 34, P. Skill Critical Damage + 5%, PvP Damage + 5%)
290	Critical Fire Stage 5 (P. Critical Rate + 37, P. Skill Critical Damage + 5%, PvP Damage + 5%)
291	Critical Fire Stage 6 (P. Critical Rate + 40, P. Skill Critical Damage + 6%, PvP Damage + 5%)
292	Critical Fire Stage 7 (P. Critical Rate + 42, P. Skill Critical Damage + 6%, PvP Damage + 5%)
293	Critical Fire Stage 8 (P. Critical Rate + 45, P. Skill Critical Damage + 7%, PvP Damage + 5%)
294	Critical Fire Stage 9 (P. Critical Rate + 48, P. Skill Critical Damage + 7%, PvP Damage + 5%)
295	Critical Fire Stage 10 (P. Critical Rate + 50, P. Skill Critical Damage + 8%, PvP Damage + 5%)
296	Critical Fire Stage 11 (P. Critical Rate + 53, P. Skill Critical Damage + 8%, PvP Damage + 5%)
297	Critical Fire Stage 12 (P. Critical Rate + 56, P. Skill Critical Damage + 9%, PvP Damage + 5%)
298	Critical Fire Stage 13 (P. Critical Rate + 59, P. Skill Critical Damage + 9%, PvP Damage + 5%)
299	Critical Fire Stage 14 (P. Critical Rate + 61, P. Skill Critical Damage + 10%, PvP Damage + 5%)
300	Critical Fire Stage 15 (P. Critical Rate + 64, P. Skill Critical Damage + 10%, PvP Damage + 5%)
301	Critical Body Stage 1 (P. Critical Rate + 26, Max HP + 10%)
302	Critical Body Stage 2 (P. Critical Rate + 29, Max HP + 11%)
303	Critical Body Stage 3 (P. Critical Rate + 32, Max HP + 11%, PvP Damage + 5%)
304	Critical Body Stage 4 (P. Critical Rate + 34, Max HP + 12%, PvP Damage + 5%)
305	Critical Body Stage 5 (P. Critical Rate + 37, Max HP + 12%, PvP Damage + 5%)
306	Critical Body Stage 6 (P. Critical Rate + 40, Max HP + 13%, PvP Damage + 5%)
307	Critical Body Stage 7 (P. Critical Rate + 42, Max HP + 13%, PvP Damage + 5%)
308	Critical Body Stage 8 (P. Critical Rate + 45, Max HP + 14%, PvP Damage + 5%)
309	Critical Body Stage 9 (P. Critical Rate + 48, Max HP + 14%, PvP Damage + 5%)
310	Critical Body Stage 10 (P. Critical Rate + 50, Max HP + 15%, PvP Damage + 5%)
311	Critical Body Stage 11 (P. Critical Rate + 53, Max HP + 15%, PvP Damage + 5%)
312	Critical Body Stage 12 (P. Critical Rate + 56, Max HP + 16%, PvP Damage + 5%)
313	Critical Body Stage 13 (P. Critical Rate + 59, Max HP + 16%, PvP Damage + 5%)
314	Critical Body Stage 14 (P. Critical Rate + 61, Max HP + 17%, PvP Damage + 5%)
315	Critical Body Stage 15 (P. Critical Rate + 64, Max HP + 17%, PvP Damage + 5%)
316	Acumen Wild Stage 1 (Casting Spd. + 5%, M. Critical Rate + 10%)
317	Acumen Wild Stage 2 (Casting Spd. + 5%, M. Critical Rate + 11%)
318	Acumen Wild Stage 3 (Casting Spd. + 6%, M. Critical Rate + 11%, PvP Damage + 5%)
319	Acumen Wild Stage 4 (Casting Spd. + 6%, M. Critical Rate + 12%, PvP Damage + 5%)
320	Acumen Wild Stage 5 (Casting Spd. + 7%, M. Critical Rate + 12%, PvP Damage + 5%)
321	Acumen Wild Stage 6 (Casting Spd. + 7%, M. Critical Rate + 13%, PvP Damage + 5%)
322	Acumen Wild Stage 7 (Casting Spd. + 8%, M. Critical Rate + 13%, PvP Damage + 5%)
323	Acumen Wild Stage 8 (Casting Spd. + 8%, M. Critical Rate + 14%, PvP Damage + 5%)
324	Acumen Wild Stage 9 (Casting Spd. + 9%, M. Critical Rate + 14%, PvP Damage + 5%)
325	Acumen Wild Stage 10 (Casting Spd. + 9%, M. Critical Rate + 15%, PvP Damage + 5%)
326	Acumen Wild Stage 11 (Casting Spd. + 10%, M. Critical Rate + 15%, PvP Damage + 5%)
327	Acumen Wild Stage 12 (Casting Spd. + 10%, M. Critical Rate + 16%, PvP Damage + 5%)
328	Acumen Wild Stage 13 (Casting Spd. + 11%, M. Critical Rate + 16%, PvP Damage + 5%)
329	Acumen Wild Stage 14 (Casting Spd. + 11%, M. Critical Rate + 17%, PvP Damage + 5%)
330	Acumen Wild Stage 15 (Casting Spd. + 12%, M. Critical Rate + 17%, PvP Damage + 5%)
331	Acumen Mystic Stage 1 (Casting Spd. + 5%, M. Critical Damage + 1%)
332	Acumen Mystic Stage 2 (Casting Spd. + 5%, M. Critical Damage + 2%)
333	Acumen Mystic Stage 3 (Casting Spd. + 6%, M. Critical Damage + 2%, PvP Damage + 5%)
334	Acumen Mystic Stage 4 (Casting Spd. + 6%, M. Critical Damage + 3%, PvP Damage + 5%)
335	Acumen Mystic Stage 5 (Casting Spd. + 7%, M. Critical Damage + 3%, PvP Damage + 5%)
336	Acumen Mystic Stage 6 (Casting Spd. + 7%, M. Critical Damage + 4%, PvP Damage + 5%)
337	Acumen Mystic Stage 7 (Casting Spd. + 8%, M. Critical Damage + 4%, PvP Damage + 5%)
338	Acumen Mystic Stage 8 (Casting Spd. + 8%, M. Critical Damage + 5%, PvP Damage + 5%)
339	Acumen Mystic Stage 9 (Casting Spd. + 9%, M. Critical Damage + 5%, PvP Damage + 5%)
340	Acumen Mystic Stage 10 (Casting Spd. + 9%, M. Critical Damage + 6%, PvP Damage + 5%)
341	Acumen Mystic Stage 11 (Casting Spd. + 10%, M. Critical Damage + 6%, PvP Damage + 5%)
342	Acumen Mystic Stage 12 (Casting Spd. + 10%, M. Critical Damage + 7%, PvP Damage + 5%)
343	Acumen Mystic Stage 13 (Casting Spd. + 11%, M. Critical Damage + 7%, PvP Damage + 5%)
344	Acumen Mystic Stage 14 (Casting Spd. + 11%, M. Critical Damage + 8%, PvP Damage + 5%)
345	Acumen Mystic Stage 15 (Casting Spd. + 12%, M. Critical Damage + 8%, PvP Damage + 5%)
346	Acumen Soul Stage 1 (Casting Spd. + 5%, Max MP + 13%)
347	Acumen Soul Stage 2 (Casting Spd. + 5%, Max MP + 14%)
348	Acumen Soul Stage 3 (Casting Spd. + 6%, Max MP + 14%, PvP Damage + 5%)
349	Acumen Soul Stage 4 (Casting Spd. + 6%, Max MP + 15%, PvP Damage + 5%)
350	Acumen Soul Stage 5 (Casting Spd. + 7%, Max MP + 15%, PvP Damage + 5%)
351	Acumen Soul Stage 6 (Casting Spd. + 7%, Max MP + 16%, PvP Damage + 5%)
352	Acumen Soul Stage 7 (Casting Spd. + 8%, Max MP + 16%, PvP Damage + 5%)
353	Acumen Soul Stage 8 (Casting Spd. + 8%, Max MP + 17%, PvP Damage + 5%)
354	Acumen Soul Stage 9 (Casting Spd. + 9%, Max MP + 17%, PvP Damage + 5%)
355	Acumen Soul Stage 10 (Casting Spd. + 9%, Max MP + 18%, PvP Damage + 5%)
356	Acumen Soul Stage 11 (Casting Spd. + 10%, Max MP + 18%, PvP Damage + 5%)
357	Acumen Soul Stage 12 (Casting Spd. + 10%, Max MP + 19%, PvP Damage + 5%)
358	Acumen Soul Stage 13 (Casting Spd. + 11%, Max MP + 19%, PvP Damage + 5%)
359	Acumen Soul Stage 14 (Casting Spd. + 11%, Max MP + 20%, PvP Damage + 5%)
360	Acumen Soul Stage 15 (Casting Spd. + 12%, Max MP + 20%, PvP Damage + 5%)
361	Wid. Mystic Stage 1 (M. Critical Rate + 10%, M. Critical Damage + 1%)
362	Wid. Mystic Stage 2 (M. Critical Rate + 10%, M. Critical Damage + 2%)
363	Wid. Mystic Stage 3 (M. Critical Rate + 11%, M. Critical Damage + 2%, PvP Damage + 5%)
364	Wid. Mystic Stage 4 (M. Critical Rate + 11%, M. Critical Damage + 3%, PvP Damage + 5%)
365	Wid. Mystic Stage 5 (M. Critical Rate + 12%, M. Critical Damage + 3%, PvP Damage + 5%)
366	Wid. Mystic Stage 6 (M. Critical Rate + 12%, M. Critical Damage + 4%, PvP Damage + 5%)
367	Wid. Mystic Stage 7 (M. Critical Rate + 13%, M. Critical Damage + 4%, PvP Damage + 5%)
368	Wid. Mystic Stage 8 (M. Critical Rate + 13%, M. Critical Damage + 5%, PvP Damage + 5%)
369	Wid. Mystic Stage 9 (M. Critical Rate + 14%, M. Critical Damage + 5%, PvP Damage + 5%)
370	Wid. Mystic Stage 10 (M. Critical Rate + 14%, M. Critical Damage + 6%, PvP Damage + 5%)
371	Wid. Mystic Stage 11 (M. Critical Rate + 15%, M. Critical Damage + 6%, PvP Damage + 5%)
372	Wid. Mystic Stage 12 (M. Critical Rate + 15%, M. Critical Damage + 7%, PvP Damage + 5%)
373	Wid. Mystic Stage 13 (M. Critical Rate + 16%, M. Critical Damage + 7%, PvP Damage + 5%)
374	Wid. Mystic Stage 14 (M. Critical Rate + 16%, M. Critical Damage + 8%, PvP Damage + 5%)
375	Wid. Mystic Stage 15 (M. Critical Rate + 17%, M. Critical Damage + 8%, PvP Damage + 5%)
376	Wid. Soul Stage 1 (M. Critical Rate + 10%, Max MP + 13%)
377	Wid. Soul Stage 2 (M. Critical Rate + 10%, Max MP + 14%)
378	Wid. Soul Stage 3 (M. Critical Rate + 11%, Max MP + 14%, PvP Damage + 5%)
379	Wid. Soul Stage 4 (M. Critical Rate + 11%, Max MP + 15%, PvP Damage + 5%)
380	Wid. Soul Stage 5 (M. Critical Rate + 12%, Max MP + 15%, PvP Damage + 5%)
381	Wid. Soul Stage 6 (M. Critical Rate + 12%, Max MP + 16%, PvP Damage + 5%)
382	Wid. Soul Stage 7 (M. Critical Rate + 13%, Max MP + 16%, PvP Damage + 5%)
383	Wid. Soul Stage 8 (M. Critical Rate + 13%, Max MP + 17%, PvP Damage + 5%)
384	Wid. Soul Stage 9 (M. Critical Rate + 14%, Max MP + 17%, PvP Damage + 5%)
385	Wid. Soul Stage 10 (M. Critical Rate + 14%, Max MP + 18%, PvP Damage + 5%)
386	Wid. Soul Stage 11 (M. Critical Rate + 15%, Max MP + 18%, PvP Damage + 5%)
387	Wid. Soul Stage 12 (M. Critical Rate + 15%, Max MP + 19%, PvP Damage + 5%)
388	Wid. Soul Stage 13 (M. Critical Rate + 16%, Max MP + 19%, PvP Damage + 5%)
389	Wid. Soul Stage 14 (M. Critical Rate + 16%, Max MP + 20%, PvP Damage + 5%)
390	Wid. Soul Stage 15 (M. Critical Rate + 17%, Max MP + 20%, PvP Damage + 5%)
391	HP Acumen Stage 1 (Max HP + 10%, Casting Spd. + 5%)
392	HP Acumen Stage 2 (Max HP + 11%, Casting Spd. + 5%)
393	HP Acumen Stage 3 (Max HP + 11%, Casting Spd. + 6%, PvP Damage + 5%)
394	HP Acumen Stage 4 (Max HP + 12%, Casting Spd. + 6%, PvP Damage + 5%)
395	HP Acumen Stage 5 (Max HP + 12%, Casting Spd. + 7%, PvP Damage + 5%)
396	HP Acumen Stage 6 (Max HP + 13%, Casting Spd. + 7%, PvP Damage + 5%)
397	HP Acumen Stage 7 (Max HP + 13%, Casting Spd. + 8%, PvP Damage + 5%)
398	HP Acumen Stage 8 (Max HP + 14%, Casting Spd. + 8%, PvP Damage + 5%)
399	HP Acumen Stage 9 (Max HP + 14%, Casting Spd. + 9%, PvP Damage + 5%)
400	HP Acumen Stage 10 (Max HP + 15%, Casting Spd. + 9%, PvP Damage + 5%)
401	HP Acumen Stage 11 (Max HP + 15%, Casting Spd. + 10%, PvP Damage + 5%)
402	HP Acumen Stage 12 (Max HP + 16%, Casting Spd. + 10%, PvP Damage + 5%)
403	HP Acumen Stage 13 (Max HP + 16%, Casting Spd. + 11%, PvP Damage + 5%)
404	HP Acumen Stage 14 (Max HP + 17%, Casting Spd. + 11%, PvP Damage + 5%)
405	HP Acumen Stage 15 (Max HP + 17%, Casting Spd. + 12%, PvP Damage + 5%)
406	HP Wild Stage 1 (Max HP + 10%, M. Critical Rate + 10%)
407	HP Wild Stage 2 (Max HP + 11%, M. Critical Rate + 10%)
408	HP Wild Stage 3 (Max HP + 11%, M. Critical Rate + 11%, PvP Damage + 5%)
409	HP Wild Stage 4 (Max HP + 12%, M. Critical Rate + 11%, PvP Damage + 5%)
410	HP Wild Stage 5 (Max HP + 12%, M. Critical Rate + 12%, PvP Damage + 5%)
411	HP Wild Stage 6 (Max HP + 13%, M. Critical Rate + 12%, PvP Damage + 5%)
412	HP Wild Stage 7 (Max HP + 13%, M. Critical Rate + 13%, PvP Damage + 5%)
413	HP Wild Stage 8 (Max HP + 14%, M. Critical Rate + 13%, PvP Damage + 5%)
414	HP Wild Stage 9 (Max HP + 14%, M. Critical Rate + 14%, PvP Damage + 5%)
415	HP Wild Stage 10 (Max HP + 15%, M. Critical Rate + 14%, PvP Damage + 5%)
416	HP Wild Stage 11 (Max HP + 15%, M. Critical Rate + 15%, PvP Damage + 5%)
417	HP Wild Stage 12 (Max HP + 16%, M. Critical Rate + 15%, PvP Damage + 5%)
418	HP Wild Stage 13 (Max HP + 16%, M. Critical Rate + 16%, PvP Damage + 5%)
419	HP Wild Stage 14 (Max HP + 17%, M. Critical Rate + 16%, PvP Damage + 5%)
420	HP Wild Stage 15 (Max HP + 17%, M. Critical Rate + 17%, PvP Damage + 5%)
421	HP Mystic Stage 1 (Max HP + 10%, M. Critical Damage + 1%)
422	HP Mystic Stage 2 (Max HP + 11%, M. Critical Damage + 2%)
423	HP Mystic Stage 3 (Max HP + 11%, M. Critical Damage + 3%, PvP Damage + 5%)
424	HP Mystic Stage 4 (Max HP + 12%, M. Critical Damage + 3%, PvP Damage + 5%)
425	HP Mystic Stage 5 (Max HP + 12%, M. Critical Damage + 4%, PvP Damage + 5%)
426	HP Mystic Stage 6 (Max HP + 13%, M. Critical Damage + 4%, PvP Damage + 5%)
427	HP Mystic Stage 7 (Max HP + 13%, M. Critical Damage + 5%, PvP Damage + 5%)
428	HP Mystic Stage 8 (Max HP + 14%, M. Critical Damage + 5%, PvP Damage + 5%)
429	HP Mystic Stage 9 (Max HP + 14%, M. Critical Damage + 6%, PvP Damage + 5%)
430	HP Mystic Stage 10 (Max HP + 15%, M. Critical Damage + 6%, PvP Damage + 5%)
431	HP Mystic Stage 11 (Max HP + 15%, M. Critical Damage + 7%, PvP Damage + 5%)
432	HP Mystic Stage 12 (Max HP + 16%, M. Critical Damage + 7%, PvP Damage + 5%)
433	HP Mystic Stage 13 (Max HP + 16%, M. Critical Damage + 8%, PvP Damage + 5%)
434	HP Mystic Stage 14 (Max HP + 17%, M. Critical Damage + 8%, PvP Damage + 5%)
435	HP Mystic Stage 15 (Max HP + 17%, M. Critical Damage + 9%, PvP Damage + 5%)
436	HP Soul Stage 1 (Max HP + 10%, Max MP + 13%)
437	HP Soul Stage 2 (Max HP + 11%, Max MP + 13%)
438	HP Soul Stage 3 (Max HP + 11%, Max MP + 14%, PvP Damage + 5%)
439	HP Soul Stage 4 (Max HP + 12%, Max MP + 14%, PvP Damage + 5%)
440	HP Soul Stage 5 (Max HP + 12%, Max MP + 15%, PvP Damage + 5%)
441	HP Soul Stage 6 (Max HP + 13%, Max MP + 15%, PvP Damage + 5%)
442	HP Soul Stage 7 (Max HP + 13%, Max MP + 16%, PvP Damage + 5%)
443	HP Soul Stage 8 (Max HP + 14%, Max MP + 16%, PvP Damage + 5%)
444	HP Soul Stage 9 (Max HP + 14%, Max MP + 17%, PvP Damage + 5%)
445	HP Soul Stage 10 (Max HP + 15%, Max MP + 17%, PvP Damage + 5%)
446	HP Soul Stage 11 (Max HP + 15%, Max MP + 18%, PvP Damage + 5%)
447	HP Soul Stage 12 (Max HP + 16%, Max MP + 18%, PvP Damage + 5%)
448	HP Soul Stage 13 (Max HP + 16%, Max MP + 19%, PvP Damage + 5%)
449	HP Soul Stage 14 (Max HP + 17%, Max MP + 19%, PvP Damage + 5%)
450	HP Soul Stage 15 (Max HP + 17%, Max MP + 20%, PvP Damage + 5%)
451	MP Fury Stage 1 (Max MP + 13%, Atk. Spd. + 5%)
452	MP Fury Stage 2 (Max MP + 13%, Atk. Spd. + 6%)
453	MP Fury Stage 3 (Max MP + 14%, Atk. Spd. + 6%, PvP Damage + 5%)
454	MP Fury Stage 4 (Max MP + 14%, Atk. Spd. + 7%, PvP Damage + 5%)
455	MP Fury Stage 5 (Max MP + 15%, Atk. Spd. + 7%, PvP Damage + 5%)
456	MP Fury Stage 6 (Max MP + 15%, Atk. Spd. + 8%, PvP Damage + 5%)
457	MP Fury Stage 7 (Max MP + 16%, Atk. Spd. + 8%, PvP Damage + 5%)
458	MP Fury Stage 8 (Max MP + 16%, Atk. Spd. + 9%, PvP Damage + 5%)
459	MP Fury Stage 9 (Max MP + 17%, Atk. Spd. + 9%, PvP Damage + 5%)
460	MP Fury Stage 10 (Max MP + 17%, Atk. Spd. + 10%, PvP Damage + 5%)
461	MP Fury Stage 11 (Max MP + 18%, Atk. Spd. + 10%, PvP Damage + 5%)
462	MP Fury Stage 12 (Max MP + 18%, Atk. Spd. + 11%, PvP Damage + 5%)
463	MP Fury Stage 13 (Max MP + 19%, Atk. Spd. + 11%, PvP Damage + 5%)
464	MP Fury Stage 14 (Max MP + 19%, Atk. Spd. + 12%, PvP Damage + 5%)
465	MP Fury Stage 15 (Max MP + 20%, Atk. Spd. + 12%, PvP Damage + 5%)
466	MP Focus Stage 1 (Max MP + 13%, P. Critical Rate + 26)
467	MP Focus Stage 2 (Max MP + 13%, P. Critical Rate + 29)
468	MP Focus Stage 3 (Max MP + 14%, P. Critical Rate + 32, PvP Damage + 5%)
469	MP Focus Stage 4 (Max MP + 14%, P. Critical Rate + 34, PvP Damage + 5%)
470	MP Focus Stage 5 (Max MP + 15%, P. Critical Rate + 37, PvP Damage + 5%)
471	MP Focus Stage 6 (Max MP + 15%, P. Critical Rate + 40, PvP Damage + 5%)
472	MP Focus Stage 7 (Max MP + 16%, P. Critical Rate + 42, PvP Damage + 5%)
473	MP Focus Stage 8 (Max MP + 16%, P. Critical Rate + 45, PvP Damage + 5%)
474	MP Focus Stage 9 (Max MP + 17%, P. Critical Rate + 48, PvP Damage + 5%)
475	MP Focus Stage 10 (Max MP + 17%, P. Critical Rate + 50, PvP Damage + 5%)
476	MP Focus Stage 11 (Max MP + 18%, P. Critical Rate + 53, PvP Damage + 5%)
477	MP Focus Stage 12 (Max MP + 18%, P. Critical Rate + 56, PvP Damage + 5%)
478	MP Focus Stage 13 (Max MP + 19%, P. Critical Rate + 59, PvP Damage + 5%)
479	MP Focus Stage 14 (Max MP + 19%, P. Critical Rate + 61, PvP Damage + 5%)
480	MP Focus Stage 15 (Max MP + 20%, P. Critical Rate + 64, PvP Damage + 5%)
481	MP Death Stage 1 (Max MP + 13%, P. Critical Damage + 1%)
482	MP Death Stage 2 (Max MP + 13%, P. Critical Damage + 2%)
483	MP Death Stage 3 (Max MP + 14%, P. Critical Damage + 2%, PvP Damage + 5%)
484	MP Death Stage 4 (Max MP + 14%, P. Critical Damage + 3%, PvP Damage + 5%)
485	MP Death Stage 5 (Max MP + 15%, P. Critical Damage + 3%, PvP Damage + 5%)
486	MP Death Stage 6 (Max MP + 15%, P. Critical Damage + 4%, PvP Damage + 5%)
487	MP Death Stage 7 (Max MP + 16%, P. Critical Damage + 4%, PvP Damage + 5%)
488	MP Death Stage 8 (Max MP + 16%, P. Critical Damage + 5%, PvP Damage + 5%)
489	MP Death Stage 9 (Max MP + 17%, P. Critical Damage + 5%, PvP Damage + 5%)
490	MP Death Stage 10 (Max MP + 17%, P. Critical Damage + 6%, PvP Damage + 5%)
491	MP Death Stage 11 (Max MP + 18%, P. Critical Damage + 6%, PvP Damage + 5%)
492	MP Death Stage 12 (Max MP + 18%, P. Critical Damage + 7%, PvP Damage + 5%)
493	MP Death Stage 13 (Max MP + 19%, P. Critical Damage + 7%, PvP Damage + 5%)
494	MP Death Stage 14 (Max MP + 19%, P. Critical Damage + 8%, PvP Damage + 5%)
495	MP Death Stage 15 (Max MP + 20%, P. Critical Damage + 8%, PvP Damage + 5%)
496	MP Hunter Stage 1 (Max MP + 13%, P. Skill Critical Rate + 3%)
497	MP Hunter Stage 2 (Max MP + 13%, P. Skill Critical Rate + 4%)
498	MP Hunter Stage 3 (Max MP + 14%, P. Skill Critical Rate + 4%, PvP Damage + 5%)
499	MP Hunter Stage 4 (Max MP + 14%, P. Skill Critical Rate + 5%, PvP Damage + 5%)
500	MP Hunter Stage 5 (Max MP + 15%, P. Skill Critical Rate + 5%, PvP Damage + 5%)
501	MP Hunter Stage 6 (Max MP + 15%, P. Skill Critical Rate + 6%, PvP Damage + 5%)
502	MP Hunter Stage 7 (Max MP + 16%, P. Skill Critical Rate + 6%, PvP Damage + 5%)
503	MP Hunter Stage 8 (Max MP + 16%, P. Skill Critical Rate + 7%, PvP Damage + 5%)
504	MP Hunter Stage 9 (Max MP + 17%, P. Skill Critical Rate + 7%, PvP Damage + 5%)
505	MP Hunter Stage 10 (Max MP + 17%, P. Skill Critical Rate + 8%, PvP Damage + 5%)
506	MP Hunter Stage 11 (Max MP + 18%, P. Skill Critical Rate + 8%, PvP Damage + 5%)
507	MP Hunter Stage 12 (Max MP + 18%, P. Skill Critical Rate + 9%, PvP Damage + 5%)
508	MP Hunter Stage 13 (Max MP + 19%, P. Skill Critical Rate + 9%, PvP Damage + 5%)
509	MP Hunter Stage 14 (Max MP + 19%, P. Skill Critical Rate + 10%, PvP Damage + 5%)
510	MP Hunter Stage 15 (Max MP + 20%, P. Skill Critical Rate + 10%, PvP Damage + 5%)
511	MP Fire Stage 1 (Max MP + 13%,  P. Skill Critical Damage + 3%)
512	MP Fire Stage 2 (Max MP + 13%,  P. Skill Critical Damage + 4%)
513	MP Fire Stage 3 (Max MP + 14%,  P. Skill Critical Damage + 4%, PvP Damage + 5%)
514	MP Fire Stage 4 (Max MP + 14%,  P. Skill Critical Damage + 5%, PvP Damage + 5%)
515	MP Fire Stage 5 (Max MP + 15%,  P. Skill Critical Damage + 5%, PvP Damage + 5%)
516	MP Fire Stage 6 (Max MP + 15%,  P. Skill Critical Damage + 6%, PvP Damage + 5%)
517	MP Fire Stage 7 (Max MP + 16%,  P. Skill Critical Damage + 6%, PvP Damage + 5%)
518	MP Fire Stage 8 (Max MP + 16%,  P. Skill Critical Damage + 7%, PvP Damage + 5%)
519	MP Fire Stage 9 (Max MP + 17%,  P. Skill Critical Damage + 7%, PvP Damage + 5%)
520	MP Fire Stage 10 (Max MP + 17%,  P. Skill Critical Damage + 8%, PvP Damage + 5%)
521	MP Fire Stage 11 (Max MP + 18%,  P. Skill Critical Damage + 8%, PvP Damage + 5%)
522	MP Fire Stage 12 (Max MP + 18%,  P. Skill Critical Damage + 9%, PvP Damage + 5%)
523	MP Fire Stage 13 (Max MP + 19%,  P. Skill Critical Damage + 9%, PvP Damage + 5%)
524	MP Fire Stage 14 (Max MP + 19%,  P. Skill Critical Damage + 10%, PvP Damage + 5%)
525	MP Fire Stage 15 (Max MP + 20%,  P. Skill Critical Damage + 10%, PvP Damage + 5%)
526	Tyrr (P. Atk. + 5%)
527	Feoh (M. Atk. + 5%)
528	Sigel (Max HP + 15%)
529	Critical Slow (Chance to decrease Speed and PvP Damage + 5% during a critical attack.)
530	Critical Stun (Chance to stun and PvP Damage + 5% during a critical attack.)
531	Magic Hold (Chance to activate a Dryad Root and PvP Damage + 5% when using a magic skill.)
532	Magic Focus (Chance to activate Focus when using a magic skill.)
533	Magic Focus (Chance to activate Focus and PvP Damage + 5% when using a magic skill.)
534	Magic Blessed Body (Chance to activate Blessed Body when using a magic skill.)
535	Magic Regeneration (Chance to activate Regeneration when using a magic skill.)
536	Magic Mental Shield (Chance to activate Mental Shield when using a magic skill.)
537	Magic Mental Shield (Chance to activate Mental Shield and PvP Damage + 5% when using a magic skill.)
538	Guidance (Accuracy + 7.6, PvP Damage + 5%)
539	Guidance (Accuracy + 7.7, PvP Damage + 5%)
540	Guidance (Accuracy + 7.8, PvP Damage + 5%)
541	Guidance (Accuracy + 7.9, PvP Damage + 5%)
542	Guidance (Accuracy + 5.27, PvP Damage + 5%)
543	Guidance (Accuracy + 7.5, PvP Damage + 5%)
544	HP Drain (Restores HP by using some of the damage inflicted upon the enemy with a certain probability. PvP Damage + 5%)
545	Evasion (Evasion + 2.95)
546	Evasion (Evasion + 2.82)
547	Evasion (Evasion + 2.68)
548	Evasion (Evasion + 2.41)
549	Evasion (Evasion + 5.31, PvP Damage + 5%)
550	Back Blow (Rear Critical Rate + 50%)
551	Back Blow (Rear Critical Rate + 45%)
552	Back Blow (Rear Critical Rate + 40%)
553	Back Blow (Rear Critical Rate + 67%)
554	Back Blow (Rear Critical Rate + 56%)
555	Back Blow (Rear Critical Rate + 37%, PvP Damage + 5%)
556	Focus (Critical Attack Rate + 90.5)
557	Focus (Critical Attack Rate + 81.2)
558	Focus (Critical Attack Rate + 71.9)
559	Focus (Critical Attack Rate + 86.7)
560	Focus (Critical Attack Rate + 82.2)
561	Focus (Critical Attack Rate + 77.8)
562	Focus (Critical Attack Rate + 73.3)
563	Focus (Critical Attack Rate + 68.9)
564	Focus (Critical Attack Rate + 64.5)
565	Guidance (Accuracy + 5.42)
566	Guidance (Accuracy + 5.12)
567	Guidance (Accuracy + 4.82)
568	Guidance (Accuracy + 4.53)
569	Guidance (Accuracy + 3.95)
570	Guidance (Accuracy + 6.07)
571	Guidance (Accuracy + 5.72)
572	Guidance (Accuracy + 5.02)
573	Mighty Mortal (Vital Spot Attack Success Rate + 50%)
574	Mighty Mortal (Vital Spot Attack Success Rate + 48%)
575	Mighty Mortal (Vital Spot Attack Success Rate + 44%)
576	Mighty Mortal (Vital Spot Attack Success Rate + 42%)
577	Mighty Mortal (Vital Spot Attack Success Rate + 40%)
578	Focus (Critical Attack Rate + 67.3, PvP Damage + 5%)
579	Focus (Critical Attack Rate + 67.3, PvP Damage + 5%)
580	Focus (Critical Attack Rate + 88.1, PvP Damage + 5%)
581	Focus (Critical Attack Rate + 116, PvP Damage + 5%)
582	Focus (Critical Attack Rate + 133.9, PvP Damage + 5%)
583	Focus (Critical Attack Rate + 133.9, PvP Damage + 5%)
584	Focus (Critical Attack Rate + 133.9, PvP Damage + 5%)
585	Focus (Critical Attack Rate + 61.6, PvP Damage + 5%)
586	Focus (Critical Attack Rate + 61.6, PvP Damage + 5%)
587	Focus (Critical Attack Rate + 80.6, PvP Damage + 5%)
588	Focus (Critical Attack Rate + 107, PvP Damage + 5%)
589	Focus (Critical Attack Rate + 123.5, PvP Damage + 5%)
590	Focus (Critical Attack Rate + 129, PvP Damage + 5%)
591	Focus (Critical Attack Rate + 129, PvP Damage + 5%)
592	Focus (Critical Attack Rate + 84.3, PvP Damage + 5%)
593	Focus (Critical Attack Rate + 111.5, PvP Damage + 5%)
594	Focus (Critical Attack Rate + 131.3, PvP Damage + 5%)
595	Focus (Critical Attack Rate + 134.4, PvP Damage + 5%)
596	Focus (Critical Attack Rate + 134.4, PvP Damage + 5%)
597	Guidance (Accuracy + 5.41, PvP Damage + 5%)
598	Guidance (Accuracy + 3.95, PvP Damage + 5%)
603	Guidance (Accuracy + 5.32, PvP Damage + 5%)
604	HP Drain (Restores HP by using some of the damage inflicted upon the enemy with a certain probability. PvP Damage + 5%)
606	HP Regeneration (Increases HP Recovery Bonus., PvP Damage + 5%)
607	HP Regeneration (Increases HP Recovery Bonus., PvP Damage + 5%)
608	HP Regeneration (Increases HP Recovery Bonus., PvP Damage + 5%)
609	HP Regeneration (Increases HP Recovery Bonus., PvP Damage + 5%)
610	Light (Weight Gauge + 20%)
611	Light (Weight Gauge + 20%, PvP Damage + 5%)
612	MP Regeneration (Increases MP Recovery Bonus., PvP Damage + 5%)
613	MP Regeneration (Increases MP Recovery Bonus., PvP Damage + 5%)
614	MP Regeneration (Increases MP Recovery Bonus., PvP Damage + 5%)
615	MP Regeneration (Increases MP Recovery Bonus., PvP Damage + 5%)
616	MP Regeneration (Increases MP Recovery Bonus., PvP Damage + 5%)
617	MP Regeneration (Increases MP Recovery Bonus., PvP Damage + 5%)
618	MP Regeneration (Increases MP Recovery Bonus., PvP Damage + 5%)
619	MP Regeneration (Increases MP Recovery Bonus., PvP Damage + 5%)
620	Rsk.Evasion (Evasion + 6.8, PvP Damage + 5% when in danger.)
621	Rsk. Focus (Critical Attack Rate+ 130, PvP Damage + 5% when in danger.)
622	Rsk. Haste (Atk. Spd.+ 11%, PvP Damage + 5% when in danger.)
623	Rsk. Haste (Atk. Spd.+ 11%, PvP Damage + 5% when in danger.)
624	Long Blow (Bow/Crossbow Range + 100, PvP Damage + 5%)
625	Conversion (Max HP - 40%, Max MP + 60%)
626	Conversion (Max HP - 40%, Max MP + 60%, PvP Damage + 5%)
627	Conversion (Max HP - 40%, Max MP + 60%, PvP Damage + 5%)
628	Rsk.Evasion (Evasion + 7.29 when in danger.)
629	Rsk.Evasion (Evasion + 6.95 when in danger.)
630	Rsk.Evasion (Evasion + 6.24 when in danger.)
631	Rsk.Evasion (Evasion + 7.63 when in danger.)
632	Rsk.Evasion (Evasion + 6.95 when in danger.)
633	Rsk.Evasion (Evasion + 6.6 when in danger.)
634	Rsk.Evasion (Evasion + 7.29 when in danger.)
635	Rsk. Focus (Critical Attack Rate + 138.7 when in danger.)
636	Rsk. Focus (Critical Attack Rate + 115.4 when in danger.)
637	Rsk. Focus (Critical Attack Rate + 107.7 when in danger.)
638	Rsk. Focus (Critical Attack Rate + 99.9 when in danger.)
639	Rsk. Focus (Critical Attack Rate + 164, PvP Damage + 5% when in danger.)
640	Rsk. Haste (Atk. Spd.+ 13% when in danger.)
641	Rsk. Haste (Atk. Spd.+ 12% when in danger.)
642	Rsk. Haste (Atk. Spd.+ 13% when in danger.)
643	Rsk. Haste (Atk. Spd.+ 12% when in danger.)
644	Rsk. Haste (Atk. Spd.+ 12% when in danger.)
645	Rsk. Haste (Atk. Spd.+ 11% when in danger.)
646	Rsk. Haste (Atk. Spd.+ 10% when in danger.)
647	Rsk. Haste (Atk. Spd.+ 9% when in danger.)
648	Acumen (Casting Spd. + 15%)
649	Health (Max HP + 25%)
650	Mana Up (Max MP + 30%)
651	Guidance (Accuracy + 6.5, PvP Damage + 5%)
652	Robust Health (Max HP + 15%, Max MP + 20%, Max CP + 30%, PvP Damage + 5%)
653	Focus (Critical Attack Rate + 109.2, PvP Damage + 5%)
654	Focus (Critical Attack Rate + 50.4)
655	Focus (Critical Attack Rate + 24.8)
656	Focus (Critical Attack Rate + 76.6)
657	Focus (Critical Attack Rate + 40.4)
658	Focus (Critical Attack Rate + 65)
659	Focus (Critical Attack Rate + 43.7)
660	Focus (Critical Attack Rate + 54)
661	Focus (Critical Attack Rate + 52.6)
662	Focus (Critical Attack Rate + 109.2, PvP Damage + 5%)
664	Health (Max HP + 25%, PvP Damage + 5%)
665	Haste (Atk. Spd. + 8%, PvP Damage + 5%)
666	Fury-Practice Stage 1 (Atk. Spd. + 1%)
667	Acumen-Practice Stage 1 (Casting Spd. + 1%)